<svg width="238" height="238" viewBox="0 0 238 238" fill="none" xmlns="http://www.w3.org/2000/svg">
<ellipse cx="117.358" cy="124.568" rx="112.358" ry="108.432" stroke="#EE8845" stroke-width="10"/>
<ellipse cx="116.84" cy="125.074" rx="89.0578" ry="84.9981" stroke="#EE8845" stroke-width="8" stroke-dasharray="19 17"/>
<ellipse cx="117.358" cy="124.568" rx="68.8645" ry="65.0252" stroke="#EE8845" stroke-width="6"/>
<ellipse cx="117.358" cy="124.568" rx="50.2245" ry="47.0919" stroke="#EE8845" stroke-width="4" stroke-dasharray="9"/>
</svg>
