<svg width="93" height="93" viewBox="0 0 93 93" fill="none" xmlns="http://www.w3.org/2000/svg">
<rect x="46" width="2" height="9" fill="white"/>
<path d="M24.0447 5.26447L28.6602 13.2586L26.7568 14.3575L22.1413 6.3634L24.0447 5.26447Z" fill="white"/>
<path d="M13.2385 28.5913L5.24438 23.9758L6.34331 22.0725L14.3374 26.688L13.2385 28.5913Z" fill="white"/>
<rect y="46" width="9" height="2" fill="white"/>
<path d="M6.47632 70.9605L5.3776 69.057L13.3726 64.4424L14.4713 66.3459L6.47632 70.9605Z" fill="white"/>
<path d="M24.0457 87.6303L22.1424 86.5314L26.7579 78.5373L28.6612 79.6362L24.0457 87.6303Z" fill="white"/>
<rect x="46" y="84" width="2" height="9" fill="white"/>
<path d="M69.058 87.6274L64.4425 79.6333L66.3459 78.5344L70.9614 86.5285L69.058 87.6274Z" fill="white"/>
<path d="M86.5324 70.856L78.5383 66.2405L79.6373 64.3372L87.6313 68.9527L86.5324 70.856Z" fill="white"/>
<rect x="84" y="46" width="9" height="2" fill="white"/>
<path d="M86.6325 22.1393L87.7314 24.0426L79.7374 28.6581L78.6384 26.7548L86.6325 22.1393Z" fill="white"/>
<path d="M68.989 5.39931L70.8923 6.49846L66.2759 14.4925L64.3725 13.3934L68.989 5.39931Z" fill="white"/>
<path fill-rule="evenodd" clip-rule="evenodd" d="M44.5942 50.8606C44.4493 51 44.3043 51 44.1594 51C43.8696 51 43.7246 51 43.5797 50.4425C43.1449 50.3031 43 50.0244 43 49.6063V41.9408C43 41.662 43.2899 41.2439 43.5797 41.1045C43.8696 40.9652 44.3043 40.9652 44.5942 41.1045L52.4203 45.007C52.7101 45.2857 53 45.5645 53 45.9826C53 46.4007 52.8551 46.8188 52.4203 46.9582L44.5942 50.8606ZM49.5217 46.122L45.1739 44.0314V48.2125L49.5217 46.122Z" fill="white"/>
<path fill-rule="evenodd" clip-rule="evenodd" d="M21.6358 26H70.5011C72.3918 26 74.1369 27.6367 73.9915 29.5709V65.2803C73.9915 67.3633 72.3918 69 70.3557 69H21.6358C19.5998 69 18 67.3633 18 65.2803V29.7197C18 27.6367 19.5998 26 21.6358 26ZM62.2115 66.7682V28.2318H29.9255V66.7682H62.2115ZM20.3269 65.2803V29.5709C20.3269 28.827 20.9086 28.083 21.7812 28.083H27.8894V66.6194H21.7812C20.9086 66.6194 20.3269 66.0242 20.3269 65.2803ZM70.5011 66.7682C71.3737 66.7682 71.9555 66.0242 71.9555 65.2803V29.7197C71.9555 28.827 71.2283 28.2318 70.5011 28.2318H64.393V66.7682H70.5011Z" fill="white"/>
<path fill-rule="evenodd" clip-rule="evenodd" d="M58 46C58 52.1429 53 57 47 57C41 57 36 52 36 46C36 39.8571 41 35 47 35C53.1429 35 58 40 58 46ZM55.8571 46C55.8571 41.1429 51.8571 37.1429 47 37.1429C42.1429 37.1429 38.1429 41.1429 38.1429 46C38.1429 50.8571 42.1429 54.8571 47 54.8571C51.8571 54.8571 55.8571 50.8571 55.8571 46Z" fill="white"/>
<rect x="66" y="31" width="4" height="2" fill="white"/>
<rect x="66" y="38" width="4" height="2" fill="white"/>
<rect x="66" y="46" width="4" height="2" fill="white"/>
<rect x="66" y="53" width="4" height="2" fill="white"/>
<rect x="66" y="60" width="4" height="2" fill="white"/>
<rect x="23" y="31" width="4" height="2" fill="white"/>
<rect x="23" y="38" width="4" height="2" fill="white"/>
<rect x="23" y="46" width="4" height="2" fill="white"/>
<rect x="23" y="53" width="4" height="2" fill="white"/>
<rect x="23" y="60" width="4" height="2" fill="white"/>
</svg>
