<svg width="84" height="72" viewBox="0 0 84 72" fill="none" xmlns="http://www.w3.org/2000/svg">
<path fill-rule="evenodd" clip-rule="evenodd" d="M42 34H5V18H42V34ZM40.0662 19.875H6.9338V32.125H40.0662V19.875Z" fill="white"/>
<path fill-rule="evenodd" clip-rule="evenodd" d="M26.5181 24.241C26.5181 21.8554 28.506 20 30.759 20C33.1446 20 35 21.8554 35 24.241C35 26.6265 33.012 28.4819 30.759 28.4819C29.9639 28.4819 29.3012 28.2169 28.6386 27.8193L25.4578 31L24 29.5422L27.1807 26.3614C26.7831 25.8313 26.5181 25.0361 26.5181 24.241ZM28.506 24.1084C28.506 25.4337 29.5663 26.3614 30.759 26.3614C31.9518 26.3614 33.012 25.4337 33.012 24.1084C33.012 22.7831 31.9518 21.8554 30.759 21.8554C29.4337 21.8554 28.506 22.9157 28.506 24.1084Z" fill="white"/>
<path fill-rule="evenodd" clip-rule="evenodd" d="M0 0V72H84V0H0ZM82.2046 1.92171V10.2491H2.05191V1.92171H82.2046ZM2.05191 12.1708V70.0783H82.2046V12.1708H2.05191Z" fill="white"/>
<rect x="71" y="6" width="2" height="2" fill="white"/>
<rect x="75" y="6" width="2" height="2" fill="white"/>
<rect x="66" y="6" width="2" height="2" fill="white"/>
<path d="M7.03103 8H58.969C59.4845 8 60 7.625 60 7C60 6.5 59.6134 6 58.969 6H7.03103C6.51551 6 6 6.375 6 7C6 7.625 6.51551 8 7.03103 8Z" fill="white"/>
<path fill-rule="evenodd" clip-rule="evenodd" d="M72.9252 51H52.0419L51.6576 50.6207C51.6541 50.6155 51.6496 50.6089 51.6441 50.6009C51.2464 50.0152 45.6586 41.7869 47.3015 33.8046C48.0702 30.0115 50.3764 26.8506 54.2199 24.4483C54.7324 23.1839 57.2948 18.5057 62.5476 18.1264L63.5725 18V22.931C63.6754 22.9437 63.7821 22.9564 63.892 22.9695C64.8777 23.0867 66.1225 23.2346 67.1598 23.6897L67.4161 23.5632L67.5442 23.8161C68.441 25.3333 71.5159 29.5057 73.822 30.5172C75.2313 31.1494 76 32.2874 76 33.6782C76 35.7011 74.5907 37.977 73.1814 38.6092C73.1814 38.6092 72.5408 38.9885 71.2596 38.9885C70.2347 38.9885 68.441 38.7356 66.0068 37.5977C66.0879 37.6778 66.169 37.7705 66.2542 37.8679C66.4381 38.0781 66.641 38.31 66.9036 38.4828C68.5691 39.8736 72.5408 43.7931 72.9252 49.9885V51ZM55.5011 25.9655C52.0419 27.9885 49.8639 30.7701 49.2233 34.1839C47.9421 40.6322 51.9138 47.4598 53.0669 49.1034H71.0034C70.2347 44.046 66.9036 40.8851 65.7505 40C63.3163 37.977 63.3163 35.7011 63.3163 35.5747V33.931L64.5975 34.9425C70.1066 38.1034 72.4127 37.092 72.4127 37.092C73.1814 36.7126 74.2063 35.1954 74.2063 33.931C74.2063 33.2989 73.822 32.7931 73.1814 32.5402C70.2347 31.4023 66.9036 26.5977 66.1349 25.4598C64.9818 24.954 63.4444 24.954 62.932 24.954H61.6508V20.2759C57.551 21.1609 55.8855 25.5862 55.8855 25.5862L55.7573 25.8391L55.5011 25.9655Z" fill="white"/>
<path d="M53.025 35.3798C53.5068 33.1395 54.7114 31.2946 57 29.7132L56.0364 28C53.3864 29.845 51.8205 32.0853 51.2182 34.8527C50.4955 38.5426 51.7 42.4961 52.9046 45L54.5909 44.2093C53.5068 41.969 52.4227 38.5426 53.025 35.3798Z" fill="white"/>
<path fill-rule="evenodd" clip-rule="evenodd" d="M75.0851 56.4711C75.0851 54.6116 73.4255 53 71.5106 53H52.4894C50.5745 53 48.9149 54.6116 48.9149 56.4711V56.719C48.9149 57.7107 49.4255 58.7025 50.1915 59.3223C48.1489 61.1818 47 63.6612 47 65.7686C47 67.0083 48.4043 68 49.6809 68H74.3191C75.5957 68 77 67.0083 77 65.7686C77 63.6612 75.8511 61.1818 73.8085 59.3223C74.5745 58.7025 75.0851 57.7107 75.0851 56.719V56.4711ZM50.8298 56.3471C50.8298 55.4793 51.5957 54.7355 52.4894 54.7355H71.383C72.2766 54.7355 73.0426 55.4793 73.0426 56.3471V56.595C73.0426 57.4628 72.2766 58.2066 71.383 58.2066H52.4894C51.5957 58.2066 50.8298 57.4628 50.8298 56.595V56.3471ZM75.0851 65.7686C75.0851 63.9091 73.8085 61.6777 71.8936 60.1901H71.383H52.4894H52.1064C50.1915 61.6777 48.9149 63.9091 48.9149 65.7686C49.0426 65.8926 49.4255 66.1405 49.6809 66.1405H74.3191C74.5745 66.1405 75.0851 65.8926 75.0851 65.7686Z" fill="white"/>
</svg>
