<svg width="87" height="69" viewBox="0 0 87 69" fill="none" xmlns="http://www.w3.org/2000/svg">
<path fill-rule="evenodd" clip-rule="evenodd" d="M49.9685 46.3077C45.541 29.5148 47.956 21.574 49.0293 19.1006C47.2852 17.929 45.2727 15.1953 46.4802 10.6391C48.2244 4.13018 53.8593 4 54.1276 4H55.4693L55.0668 5.30178C55.0668 5.30178 54.396 7.38462 55.6034 8.68639L55.6119 8.69577C56.5602 9.74724 59.4878 12.9935 57.3476 16.7574C57.3476 16.7574 56.8109 17.929 55.6034 18.9704C56.8109 21.4438 59.2259 29.2544 54.5301 46.3077C54.396 46.9586 53.7251 48 52.2493 48C50.7735 48 50.1027 46.8284 49.9685 46.3077ZM52.786 6.21302C51.4443 6.60355 49.2977 7.77515 48.3585 11.1598C47.1294 15.8107 49.9538 17.5119 50.5396 17.8648C50.5932 17.8971 50.6281 17.9181 50.6393 17.929L51.7127 18.3195L51.0418 19.2308C51.0418 19.2388 51.0249 19.2722 50.9944 19.3325C50.5314 20.247 46.9378 27.3452 51.8468 45.787C51.8468 45.9172 51.981 46.0473 52.1151 46.0473C52.1151 46.0473 52.3835 46.0473 52.3835 45.787C57.5454 27.341 53.8464 20.2438 53.3711 19.3319C53.3399 19.272 53.3226 19.2388 53.3226 19.2308L52.786 18.3195L53.7251 17.7988C54.9326 17.0178 55.4693 15.8462 55.4693 15.8462C56.5426 14.0237 56.0059 12.2012 53.9935 9.98817C52.786 8.81657 52.6518 7.25444 52.786 6.21302Z" fill="white"/>
<rect x="51.1132" y="33" width="2" height="2" fill="white"/>
<rect x="51.1132" y="28" width="2" height="2" fill="white"/>
<path fill-rule="evenodd" clip-rule="evenodd" d="M3.64741 0H82.1862C84.1497 0 85.8514 1.70209 86.1132 3.66603V55.907C86.1132 58.0019 84.4115 59.5731 82.448 59.5731H54.0431L59.0173 67.0361H64.2532V69H21.9731V67.0361H27.209L32.1832 59.5731H3.7783C1.68394 59.5731 0.113159 57.871 0.113159 55.907V3.66603C0.113159 1.70209 1.68394 0 3.64741 0ZM82.1862 1.96395H3.64741C2.73112 1.96395 2.07663 2.74953 2.07663 3.66603V50.1461H83.8879V3.66603C83.8879 2.74953 83.1025 1.96395 82.1862 1.96395ZM56.3993 66.9051H29.4343L34.4084 59.4421H51.4252L56.3993 66.9051ZM3.64741 57.4782H82.1862C83.1025 57.4782 83.8879 56.8235 83.8879 55.907V52.1101H2.07663V55.7761C2.07663 56.6926 2.73112 57.4782 3.64741 57.4782Z" fill="white"/>
<path fill-rule="evenodd" clip-rule="evenodd" d="M66.2233 47.3452C63.7829 46.1667 62.1132 43.5476 62.1132 40.7976C62.1132 38.3095 63.2691 36.0833 65.3242 34.7738V17.0952C63.2691 15.7857 62.1132 13.5595 62.1132 11.2024C62.1132 8.32143 63.6544 5.83333 66.2233 4.65476L67.6361 4V8.32143L69.1774 9.63095L70.7187 8.32143V4L72.1315 4.65476C74.5719 5.83333 76.1132 8.32143 76.1132 11.0714C76.1132 13.4286 74.8288 15.6548 72.9022 16.9643V34.9048C74.9572 36.2143 76.1132 38.4405 76.1132 40.7976C76.1132 43.5476 74.5719 46.0357 72.1315 47.2143L70.7187 47.869V43.5476L69.1774 42.2381L67.6361 43.5476V48L66.2233 47.3452ZM64.0398 11.2024C64.0398 13.0357 65.0673 14.7381 66.737 15.6548L67.2508 15.9167V35.9524L66.737 36.2143C65.0673 37 64.0398 38.8333 64.0398 40.6667C64.0398 42.1071 64.682 43.5476 65.7095 44.4643V42.5L69.1774 39.4881L72.6453 42.5V44.3333C73.6728 43.4167 74.1866 42.1071 74.1866 40.6667C74.1866 38.8333 73.159 37.131 71.4893 36.2143L70.9755 35.9524V15.9167L71.4893 15.6548C73.159 14.869 74.1866 13.0357 74.1866 11.2024C74.1866 9.7619 73.5444 8.45238 72.6453 7.53571V9.36905L69.1774 12.381L65.7095 9.36905V7.40476C64.682 8.32143 64.0398 9.7619 64.0398 11.2024Z" fill="white"/>
<path fill-rule="evenodd" clip-rule="evenodd" d="M37.9846 6H6.11316V25H37.9846V6ZM20.1212 15.4362L8.04087 22.3221V8.67785L20.1212 15.4362ZM33.4867 7.91275H10.7397L22.1774 14.4161L33.4867 7.91275ZM22.1774 16.5839L33.4867 23.0872H10.7397L22.1774 16.5839ZM36.1854 8.55034L24.1051 15.4362L36.1854 22.3221V8.55034Z" fill="white"/>
<path fill-rule="evenodd" clip-rule="evenodd" d="M5.11316 28H19.9827V47H5.11316V28ZM7.06968 45.007H18.1566V29.993H7.06968V45.007Z" fill="white"/>
<path fill-rule="evenodd" clip-rule="evenodd" d="M38.1132 47H23.1132V28H38.1132V47ZM36.1395 29.993H25.0868V45.007H36.1395V29.993Z" fill="white"/>
</svg>
