<svg width="106" height="85" viewBox="0 0 106 85" fill="none" xmlns="http://www.w3.org/2000/svg">
<path fill-rule="evenodd" clip-rule="evenodd" d="M1.09598 29.027L15.885 4.55686C16.0192 4.33987 16.2371 4.15626 16.5054 4.10618L30.3219 0.767822L61.7947 0L84.4646 2.72076C84.7328 2.73745 84.9676 2.88768 85.1185 3.07129L105.726 28.9102C106.078 29.3442 105.994 29.8783 105.609 30.2622L52.4887 84.7442C52.0863 85.1114 51.4659 85.0781 51.097 84.6775L1.36426 30.329C0.961841 29.9951 0.810933 29.5111 1.09598 29.027ZM31.7472 2.68738L40.9023 27.458L59.6988 2.00302L31.7472 2.68738ZM91.9261 28.5263H102.909L86.4934 7.96198L91.9261 28.5263ZM27.1026 3.53866L6.79697 23.4019L17.3773 5.90889L27.1026 3.53866ZM4.36567 28.5263L29.953 3.52197L39.192 28.5263H4.36567ZM91.6579 30.5126L60.4198 73.7944L102.624 30.5126H91.6579ZM89.2266 30.5126L52.3378 81.6229L41.8245 30.5126H89.2266ZM83.5591 4.59024L64.4608 2.28678L89.3104 26.3563L83.5591 4.59024ZM88.7235 28.5263H42.5623L61.8115 2.47039L88.7235 28.5263ZM39.7956 30.5126H4.19799L50.1413 80.7048L39.7956 30.5126Z" fill="#EE8845"/>
</svg>
