<svg width="53" height="52" viewBox="0 0 53 52" fill="none" xmlns="http://www.w3.org/2000/svg">
<path fill-rule="evenodd" clip-rule="evenodd" d="M52.3896 26.4976L46.4326 29.3589C46.3085 30.1053 46.1844 30.8517 45.8121 31.3493L50.0317 36.4498L49.6593 37.1962C49.0388 38.4402 48.4183 39.6842 47.6737 40.6794L47.4254 40.9282C46.6808 41.9234 45.8121 43.0431 44.8192 44.0383L44.3228 44.6603L38.1176 42.5455L36.256 43.6651L35.6355 50.2584L34.8908 50.5072C34.5937 50.5884 34.3024 50.6696 34.0158 50.7496C32.9854 51.037 32.0145 51.3077 31.0436 51.5024L30.6713 51.6268C29.4302 51.8756 28.1892 52 26.6999 52H25.9553L23.1009 46.0287C22.3562 45.9043 21.7357 45.7799 20.9911 45.5311L15.9028 49.7608L15.1581 49.3876C13.9171 48.7655 12.676 48.1435 11.6832 47.3971L11.5591 47.2727L11.435 47.1483C10.318 46.4019 9.32521 45.5311 8.33237 44.5359L7.71184 44.0383L9.82163 37.8182L8.70468 35.9522L2.12712 35.3301L1.87891 34.5837C1.79787 34.2859 1.71683 33.9939 1.63707 33.7066C1.35039 32.6738 1.08025 31.7005 0.886068 30.7273L0.761963 30.3541C0.513753 29.11 0.389648 27.866 0.389648 26.3732V25.6268L6.34669 22.7656C6.47079 22.0191 6.5949 21.3971 6.84311 20.6507L2.62354 15.5502L2.99585 14.8038C3.61638 13.5598 4.2369 12.3158 4.98153 11.3206L5.22974 11.0718C5.97437 10.0766 6.84311 8.95694 7.83595 7.96172L8.33237 7.33971L14.5376 9.45455L16.3992 8.33493L17.0197 1.74163L17.8885 1.49282C18.1856 1.41159 18.4769 1.33035 18.7635 1.2504C19.7939 0.963041 20.7648 0.692255 21.7357 0.497608L22.108 0.373206C23.3491 0.124402 24.5901 0 26.0794 0H26.824L29.6784 5.97129C30.4231 6.09569 31.0436 6.2201 31.7882 6.4689L36.8765 2.23923L37.6212 2.73684C38.8622 3.35885 40.1033 3.98086 41.0961 4.72727L41.2202 4.85167L41.3443 4.97608C42.4612 5.72249 43.4541 6.5933 44.4469 7.58852L45.0675 8.08612L42.9577 14.3062L44.0746 16.1722L50.6522 16.7943L50.9004 17.5407C50.9814 17.8385 51.0625 18.1305 51.1422 18.4179C51.4289 19.4507 51.699 20.4239 51.8932 21.3971L52.0173 21.7703C52.2655 23.0144 52.3896 24.2584 52.3896 25.7512V26.4976ZM47.1771 36.9476L47.1772 36.9474L43.0818 31.9713L43.33 31.3493C43.5782 30.4785 43.8264 29.4833 43.9505 28.3636L44.0746 27.7416L49.7834 25.0048C49.7834 24.0096 49.6593 23.0144 49.5352 22.1435V21.7703L49.5352 21.7703C49.287 20.8995 49.0388 20.0287 48.7906 19.0335L42.4613 18.4115L42.0889 17.7895C41.5925 16.7943 41.0961 15.9234 40.4756 15.177L40.1033 14.6794L42.213 8.70813C41.4684 7.96172 40.7238 7.33971 39.9791 6.84211L39.7309 6.7177C38.9863 6.22011 38.1176 5.72252 37.2489 5.22493L37.2488 5.22488L32.1605 9.45455L31.54 9.20574C30.6713 8.95694 29.6784 8.70813 28.5615 8.58373L27.941 8.45933L25.2106 2.73684C24.2178 2.73684 23.225 2.86124 22.3562 2.98565H21.9839C21.1152 3.23445 20.2465 3.48325 19.2536 3.73206L18.6331 10.0766L18.0126 10.3254C17.0197 10.823 16.151 11.3206 15.4064 11.9426L14.9099 12.3158L8.95289 10.201C8.20826 10.9474 7.58774 11.6938 7.09132 12.4402L6.96721 12.689C6.47079 13.4354 5.97437 14.3062 5.47795 15.177L9.57342 20.2775L9.32521 20.8995C9.077 21.7703 8.82879 22.7656 8.70468 23.8852L8.58058 24.5072L2.87175 27.244C2.87175 28.2392 2.99585 29.2345 3.11996 30.1053V30.3541C3.24406 30.8517 3.36817 31.3182 3.49227 31.7847C3.61638 32.2512 3.74048 32.7177 3.86459 33.2153L10.1939 33.8373L10.6904 34.3349C11.1868 35.3301 11.6832 36.201 12.3037 36.9474L12.676 37.445L10.5663 43.4163C11.3109 44.1627 12.0555 44.7847 12.8001 45.2823L13.0484 45.4067C13.7929 45.9043 14.6616 46.4019 15.5303 46.8994L15.5305 46.8995L20.3706 42.9187L20.9911 43.1675C21.8598 43.4163 22.8527 43.6651 23.9696 43.7895H24.7142L27.4445 49.512C28.4374 49.512 29.4302 49.3876 30.299 49.2632H30.6713L30.6713 49.2631C31.54 49.0143 32.4088 48.7655 33.4016 48.5167L34.0221 42.1722L34.6426 41.799C35.6355 41.3014 36.5042 40.8038 37.2488 40.1818L37.7453 39.8086L43.7023 41.9234C44.4469 41.177 45.0675 40.4306 45.5639 39.6842L45.688 39.4354C46.1844 38.6891 46.6807 37.8183 47.1771 36.9476Z" fill="#EE8845"/>
<path fill-rule="evenodd" clip-rule="evenodd" d="M15.3896 25.5C15.3896 19.6807 20.0704 15 25.8896 15C31.7089 15 36.3896 19.6807 36.3896 25.5C36.3896 31.3193 31.7089 36 25.8896 36C20.0704 36 15.3896 31.3193 15.3896 25.5ZM17.9198 25.6265C17.9198 30.0542 21.4619 33.5964 25.8896 33.5964C30.3174 33.5964 33.8595 30.0542 33.8595 25.6265C33.8595 21.1988 30.3174 17.6566 25.8896 17.6566C21.4619 17.6566 17.9198 21.1988 17.9198 25.6265Z" fill="#EE8845"/>
</svg>
