<svg width="26" height="26" viewBox="0 0 26 26" fill="none" xmlns="http://www.w3.org/2000/svg">
<path fill-rule="evenodd" clip-rule="evenodd" d="M23.2477 24.6008C23.5555 24.9055 23.9576 25.0594 24.3597 25.0594C24.7618 25.0594 25.1639 24.9055 25.4686 24.6008C26.0718 23.9915 26.0718 22.9928 25.4686 22.3804L15.6464 12.5606L25.4686 2.74222C26.0718 2.12666 26.0718 1.13423 25.4686 0.518669C24.8561 -0.0937491 23.8508 -0.0937491 23.2477 0.518669L13.4245 10.3393L3.60139 0.518669C2.98882 -0.0937491 1.98358 -0.0937491 1.38043 0.518669C0.767857 1.13423 0.767857 2.12666 1.38043 2.74222L11.2027 12.5606L1.38043 22.3804C0.767857 22.9928 0.767857 23.9915 1.38043 24.6008C1.68829 24.9055 2.09038 25.0594 2.49248 25.0594C2.89144 25.0594 3.29354 24.9055 3.60139 24.6008L13.4245 14.7816L23.2477 24.6008Z" fill="#EE8845"/>
</svg>
