<svg width="23" height="15" viewBox="0 0 23 15" fill="none" xmlns="http://www.w3.org/2000/svg">
<path fill-rule="evenodd" clip-rule="evenodd" d="M1.50215 13.6924C1.81064 13.9382 2.18805 14.0596 2.56218 14.0596C3.02819 14.0596 3.49093 13.8729 3.81583 13.5088L11.921 4.42568L20.0252 13.5089C20.3501 13.8729 20.8094 14.0596 21.2786 14.0596C21.6559 14.0596 22.03 13.9382 22.3384 13.6925C23.0307 13.1356 23.1193 12.1555 22.532 11.4991L13.9052 1.83017C13.9802 1.31969 13.7861 0.785443 13.3396 0.428377C12.9334 0.101889 12.4062 -0.00510146 11.9215 0.0965701C11.4386 -0.00508304 10.913 0.101699 10.5034 0.42962C10.0574 0.786348 9.86196 1.31994 9.93632 1.82997L1.30852 11.4989C0.724361 12.1554 0.809688 13.1355 1.50215 13.6924Z" fill="#EE8845"/>
</svg>
