<svg width="29" height="42" viewBox="0 0 29 42" fill="none" xmlns="http://www.w3.org/2000/svg">
<path d="M26.0202 16.2058C25.6207 16.5867 25.2011 16.9723 24.7159 17.3224C23.8832 17.9446 22.7544 18.4037 21.6284 18.3101C21.6145 18.3088 21.6005 18.3055 21.587 18.3041C21.0324 18.6664 20.4545 19.3211 19.8002 19.8264C19.0877 20.4057 18.1019 20.9431 17.0629 20.7633C16.8976 20.734 16.7863 20.5775 16.8143 20.4117C16.8408 20.2553 16.9847 20.1477 17.1398 20.1584C17.9263 20.2231 18.6407 19.77 19.247 19.1879C19.5543 18.8946 19.843 18.5705 20.1476 18.2356C20.2025 18.1774 20.2626 18.1141 20.3194 18.0545C18.7128 17.5367 17.3549 16.2756 16.9326 14.6183C16.8743 14.385 17.014 14.1484 17.2478 14.0897C17.4718 14.0329 17.7023 14.168 17.7712 14.3845C18.2872 16.0172 20.0111 17.1189 21.6778 17.091C22.4764 17.0989 23.2089 16.7608 23.8679 16.2123C24.3918 15.788 24.8723 15.246 25.393 14.6886C25.61 11.2524 23.0846 10.4737 21.3718 9.61504C19.498 9.47208 17.5654 10.131 16.5055 11.7022C16.1833 12.1539 15.997 12.5949 15.7376 13.1817C15.4564 13.7717 15.1173 14.3137 14.6642 14.7882C14.2111 15.2539 13.6551 15.6684 12.9841 15.8481C12.3191 16.046 11.5708 15.945 10.978 15.6251C10.8015 15.5329 10.7321 15.3135 10.8243 15.1352C10.9146 14.9615 11.1298 14.8958 11.3067 14.9773C12.2469 15.4397 13.3049 14.982 13.9685 14.1619C14.3094 13.761 14.5767 13.2706 14.7746 12.7826C14.9637 12.2787 15.2002 11.6063 15.5439 11.0745C16.2149 9.95778 17.3056 9.06834 18.5331 8.59987C19.1631 8.35725 19.8221 8.20823 20.4852 8.14071C20.705 7.9563 20.997 7.74302 21.4221 7.52928C23.8953 6.28825 21.3574 2.96565 19.3038 5.6554C18.4404 6.78419 17.3056 7.35884 16.5097 7.32205C16.5069 7.32345 16.5037 7.32671 16.5004 7.3281C16.2205 7.52788 15.9369 7.66758 15.6664 7.77515C15.1229 7.99309 14.6098 8.12069 14.1185 8.25433C13.1047 8.51977 12.3135 8.76565 11.4981 9.31561C10.6981 9.81482 10.0899 10.4402 9.74531 11.2663C9.39372 12.0864 9.28289 13.0499 9.28475 14.0189C9.34017 15.0681 9.36625 16.1834 9.28335 17.3029C9.69827 18.1937 10.4322 18.9523 11.1144 19.8129C11.8395 20.7149 12.6153 21.7282 12.8779 23.0647L12.9166 23.3148C12.9226 23.3702 12.9305 23.3669 12.9352 23.4717L12.9366 23.5788C12.9338 23.7311 12.9506 23.8461 12.9287 24.038C12.904 24.4003 12.8411 24.7183 12.7475 25.0336C12.5557 25.6604 12.2409 26.2485 11.8073 26.737C10.9733 27.7168 9.58325 28.3483 8.26213 28.0274C8.04093 27.9739 7.90589 27.7508 7.95944 27.5315C8.00833 27.3256 8.20811 27.1948 8.41254 27.2195C9.39698 27.3377 10.3572 26.8143 10.97 26.0339C11.5982 25.2259 11.8902 24.2671 11.7179 23.2687C11.5568 22.3145 10.8993 21.4083 10.2263 20.5114C9.85288 20.0075 9.43377 19.4883 9.06356 18.9216C8.97461 19.3672 8.87449 19.811 8.72548 20.2427C8.08051 22.3056 6.42923 24.0626 4.42775 24.8138L4.41238 24.8184C4.21726 24.892 4.00072 24.7938 3.92715 24.5986C3.85636 24.41 3.94857 24.1977 4.13298 24.1195C5.94259 23.3544 7.28654 21.8092 7.81322 19.9479C8.37994 18.0694 8.29845 16.114 8.12196 14.0432C8.08657 12.9819 8.15875 11.8698 8.5718 10.7899C8.96949 9.70073 9.83006 8.7731 10.7409 8.17564C11.1773 7.8776 11.6685 7.57817 12.1985 7.36163C12.7131 7.14649 13.2244 6.99002 13.7143 6.84101C14.4333 6.61795 15.1518 6.41072 15.5635 6.09313C15.6016 4.96433 15.8783 3.45554 14.39 3.45554C13.2472 3.45554 14.172 2.56005 14.39 1.09317C14.6084 -0.373714 12.226 -0.433786 12.544 1.33718C12.8514 3.04528 11.9726 4.84093 11.8096 3.29255C11.6467 1.74418 11.384 -0.166488 10.1905 0.444479C9.30897 0.896185 10.312 2.31091 9.79886 3.56451C9.34902 4.66397 8.04931 5.21719 7.73731 2.96705C7.25953 -0.475231 3.9495 1.39399 5.04943 2.96705C5.72233 3.93007 6.07857 5.79324 5.14303 6.16671C3.75904 6.71993 4.86642 7.97167 3.66404 8.66879C3.06192 4.0856 0.278575 4.6677 0.731678 7.61077C1.08187 9.88886 0.894664 16.6519 0.243183 20.7256C-0.408298 24.7993 0.324677 25.8574 1.54568 26.5899C2.76715 27.3228 3.58255 30.2566 5.21241 32.2101C6.84228 34.1641 11.6467 40.1946 17.2674 41.5786C22.8872 42.9626 26.8198 40.0656 28.2867 32.164C29.6483 24.8352 29.1491 18.1397 26.0202 16.2058Z" fill="#BE4B4B"/>
</svg>
