<svg width="40" height="56" viewBox="0 0 40 56" fill="none" xmlns="http://www.w3.org/2000/svg">
<path d="M37.9571 55.6062C37.2918 55.6062 36.7373 55.0537 36.7373 54.3906V31.8465C36.7373 31.1834 37.2918 30.6309 37.9571 30.6309C38.6225 30.6309 39.1769 31.1834 39.1769 31.8465V54.3906C39.1769 55.0537 38.6225 55.6062 37.9571 55.6062Z" fill="#EE8845"/>
<path d="M1.80672 55.3849C1.14137 55.3849 0.586914 54.8323 0.586914 54.1692V31.8461C0.586914 31.5146 0.697805 31.1831 1.03048 30.962L8.57107 24.4419C9.01464 23.9999 9.79087 23.9999 10.1235 24.5524C10.5671 24.9945 10.5671 25.768 10.0127 26.2101L2.91563 32.3987V54.1692C2.91563 54.8323 2.47206 55.3849 1.80672 55.3849Z" fill="#EE8845"/>
<path d="M37.9572 32.9514C37.7354 32.9514 37.4027 32.8408 37.1809 32.6198L29.6403 26.2102C29.1968 25.7682 29.0859 24.9946 29.5294 24.5526C29.973 24.1105 30.7492 24 31.1928 24.442L38.7334 30.9622C39.177 31.4042 39.2879 32.1778 38.8443 32.6198C38.6225 32.8408 38.2898 32.9514 37.9572 32.9514Z" fill="#EE8845"/>
<path fill-rule="evenodd" clip-rule="evenodd" d="M7.58691 13C7.58691 20.1111 12.6735 26 19.0869 26C25.3898 26 30.5869 20.1111 30.5869 13C30.5869 5.88889 25.5004 0 19.0869 0C12.784 0 7.58691 5.77778 7.58691 13ZM9.90903 12.8889C9.90903 7 14.0004 2.22222 19.0869 2.22222C24.1735 2.22222 28.2648 7 28.2648 12.8889C28.2648 18.7778 24.1735 23.5556 19.0869 23.5556C14.0004 23.5556 9.90903 18.7778 9.90903 12.8889Z" fill="#EE8845"/>
</svg>
