<svg width="21" height="14" viewBox="0 0 21 14" fill="none" xmlns="http://www.w3.org/2000/svg">
<path d="M7.89029 14L0.923993 7.21875C0.474555 6.78125 0.474555 6.01562 0.923993 5.57812C1.37343 5.14062 2.15995 5.14062 2.60939 5.57812L7.89029 10.7188L18.5644 0.328125C19.0139 -0.109375 19.8004 -0.109375 20.2498 0.328125C20.6993 0.765625 20.6993 1.53125 20.2498 1.96875L7.89029 14Z" fill="#EE8845"/>
</svg>
