<svg width="14" height="13" viewBox="0 0 14 13" fill="none" xmlns="http://www.w3.org/2000/svg">
<path d="M12.4365 13C12.0913 13 11.8613 12.885 11.5161 12.6549L0.932047 2.0708C0.47187 1.61062 0.47187 0.80531 0.932047 0.345133C1.39222 -0.115044 2.19753 -0.115044 2.65771 0.345133L13.2418 10.9292C13.702 11.3894 13.702 12.1947 13.2418 12.6549C13.0117 12.885 12.7816 13 12.4365 13Z" fill="#EE8845"/>
<path d="M1.8524 13C1.50727 13 1.27718 12.885 0.932047 12.6549C0.47187 12.1947 0.47187 11.3894 0.932047 10.9292L11.5161 0.345133C11.9763 -0.115044 12.7816 -0.115044 13.2418 0.345133C13.702 0.80531 13.702 1.61062 13.2418 2.0708L2.65771 12.6549C2.42762 12.885 2.19753 13 1.8524 13Z" fill="#EE8845"/>
</svg>
